[gd_scene load_steps=4 format=2]

[ext_resource path="res://texturas/spritesheet.png" type="Texture" id=1]
[ext_resource path="res://scripts/bala.gd" type="Script" id=2]

[sub_resource type="RectangleShape2D" id=1]
extents = Vector2( 2, 2 )

[node name="bala" type="Area2D" groups=[
"bala",
]]
script = ExtResource( 2 )

[node name="spr" type="Sprite" parent="."]
texture = ExtResource( 1 )
region_enabled = true
region_rect = Rect2( 0, 64, 16, 16 )

[node name="col" type="CollisionShape2D" parent="."]
shape = SubResource( 1 )

[node name="vis" type="VisibilityNotifier2D" parent="."]
